0000000000000000000000000
0000000000000000000000000
0000000000000000010300000
0000000000000000111110000
0000000000000000000000000
0000000001111111000000000
0000000000000000000000000
0000000000000000000000000
0000300000001000000020000
1111111111111111111111111